[gd_resource type="AtlasTexture" load_steps=2 format=2]

[ext_resource path="res://megaman/spritesheet/megaman_spritesheet.png" type="Texture" id=1]

[resource]

flags = 0
atlas = ExtResource( 1 )
region = Rect2( 25, 46, 18, 40 )
margin = Rect2( 0, 0, 0, 0 )
filter_clip = false

