[gd_scene load_steps=5 format=2]

[ext_resource path="res://Player.gd" type="Script" id=1]
[ext_resource path="res://util/IsoYToZIndex.tscn" type="PackedScene" id=2]
[ext_resource path="res://megaman/MegamanRenderer.tscn" type="PackedScene" id=3]

[sub_resource type="RectangleShape2D" id=1]

custom_solver_bias = 0.0
extents = Vector2( 8, 4 )

[node name="Player" type="KinematicBody2D" index="0"]

input_pickable = false
collision_layer = 1
collision_mask = 1
collision/safe_margin = 0.08
script = ExtResource( 1 )

[node name="IsoYToZIndex" parent="." index="0" instance=ExtResource( 2 )]

[node name="MegamanRenderer" parent="IsoYToZIndex" index="0" instance=ExtResource( 3 )]

[node name="CollisionShape2D" type="CollisionShape2D" parent="." index="1"]

visible = false
position = Vector2( 0, -4 )
shape = SubResource( 1 )


