[gd_resource type="AtlasTexture" load_steps=2 format=2]

[ext_resource path="res://maps/resources/GenericHP/GenericHP.png" type="Texture" id=1]

[resource]

flags = 0
atlas = ExtResource( 1 )
region = Rect2( 619, 105, 64, 31 )
margin = Rect2( 0, 0, 0, 0 )
filter_clip = false

